…
    return(data.frame(ge_lfc = ma_lfcs$logFC[found],
        ge_pval = ma_lfcs$adj.P.Val[found]))
}

ge <- lapply(info$ENTREZID, get_ma_lfc)
info <- bind_cols(info, do.call(rbind, ge))

info$significant <- info$ge_pval<0.05 & info$met_pval<0.05

info[info$significant, ]
```

    ## # A tibble: 77 x 11
    ## # Groups:   r_idx [31]
    ##    r_idx ENZYME SYMBOL ENSEMBL ENTREZID met_lfc met_pval pathway ge_lfc ge_pval
    ##    <int> <chr>  <chr>  <chr>   <chr>      <dbl>    <dbl> <fct>    <dbl>   <dbl>
    ##  1     4 4.2.1… ENO1   ENSG00… 2023       5.35   2.21e-2 Glycol… -0.685 1.13e-5
    ##  2     4 4.2.1… ENO2   ENSG00… 2026       5.35   2.21e-2 Glycol… -0.675 7.67e-5
    ##  3     5 4.2.1… ENO1   ENSG00… 2023       6.14   3.04e-3 Glycol… -0.685 1.13e-5
    ##  4     5 4.2.1… ENO2   ENSG00… 2026       6.14   3.04e-3 Glycol… -0.675 7.67e-5
    ##  5    18 5.4.2… PGM1   ENSG00… 5236      -1.89   2.77e-2 Glycol… -0.241 4.87e-3
    ##  6    33 2.7.6… PRPS2  ENSG00… 5634      -3.42   1.40e-2 Pentos… -0.452 9.11e-4
    ##  7    44 4.2.1… ACO1   ENSG00… 48        -0.782  2.73e-2 TCA cy…  0.412 2.25e-4
    ##  8    44 4.2.1… ACO2   ENSG00… 50        -0.782  2.73e-2 TCA cy… -0.305 3.35e-3
    ##  9    46 2.3.3… CS     ENSG00… 1431      -2.57   8.57e-5 TCA cy… -0.311 9.15e-4
    ## 10    46 1.2.4… PDHA1  ENSG00… 5160      -2.57   8.57e-5 TCA cy… -0.384 3.03e-4
    ## # … with 67 more rows, and 1 more variable: significant <lgl>

``` r
write.csv(info[info$significant,], "output/Gene-ReactionsA549.csv")
```

HCC827:

    ## # A tibble: 76 x 11
    ## # Groups:   r_idx [32]
    ##    r_idx ENZYME SYMBOL ENSEMBL ENTREZID met_lfc met_pval pathway ge_lfc ge_pval
    ##    <int> <chr>  <chr>  <chr>   <chr>      <dbl>    <dbl> <fct>    <dbl>   <dbl>
    ##  1     4 4.2.1… ENO1   ENSG00… 2023        5.35  0.0221  Glycol… -0.363 1.56e-3
    ##  2     4 4.2.1… ENO2   ENSG00… 2026        5.35  0.0221  Glycol…  0.228 1.11e-2
    ##  3     4 4.2.1… ENO3   ENSG00… 2027        5.35  0.0221  Glycol…  0.396 7.10e-4
    ##  4     5 4.2.1… ENO1   ENSG00… 2023        6.14  0.00304 Glycol… -0.363 1.56e-3
    ##  5     5 4.2.1… ENO2   ENSG00… 2026        6.14  0.00304 Glycol…  0.228 1.11e-2
    ##  6     5 4.2.1… ENO3   ENSG00… 2027        6.14  0.00304 Glycol…  0.396 7.10e-4
    ##  7    14 2.7.2… PGK1   ENSG00… 5230        4.90  0.0167  Glycol… -0.253 1.04e-2
    ##  8    15 2.7.2… PGK1   ENSG00… 5230       -3.30  0.00304 Glycol… -0.253 1.04e-2
    ##  9    18 5.4.2… PGM2   ENSG00… 55276      -1.89  0.0277  Glycol… -0.751 3.83e-5
    ## 10    33 2.7.6… PRPS1  ENSG00… 5631       -3.42  0.0140  Pentos…  1.12  3.06e-4
    ## # … with 66 more rows, and 1 more variable: significant <lgl>

NCI-H358:

    ## # A tibble: 76 x 11
    ## # Groups:   r_idx [33]
    ##    r_idx ENZYME SYMBOL ENSEMBL ENTREZID met_lfc met_pval pathway ge_lfc ge_pval
    ##    <int> <chr>  <chr>  <chr>   <chr>      <dbl>    <dbl> <fct>    <dbl>   <dbl>
    ##  1     4 4.2.1… ENO1   ENSG00… 2023        5.35  2.21e-2 Glycol… -0.193 1.06e-2
    ##  2     4 4.2.1… ENO2   ENSG00… 2026        5.35  2.21e-2 Glycol… -0.307 7.04e-3
    ##  3     4 4.2.1… ENO3   ENSG00… 2027        5.35  2.21e-2 Glycol…  0.312 9.14e-3
    ##  4     5 4.2.1… ENO1   ENSG00… 2023        6.14  3.04e-3 Glycol… -0.193 1.06e-2
    ##  5     5 4.2.1… ENO2   ENSG00… 2026        6.14  3.04e-3 Glycol… -0.307 7.04e-3
    ##  6     5 4.2.1… ENO3   ENSG00… 2027        6.14  3.04e-3 Glycol…  0.312 9.14e-3
    ##  7    18 5.4.2… PGM2   ENSG00… 55276      -1.89  2.77e-2 Glycol… -0.601 8.13e-5
    ##  8    33 2.7.6… PRPS1  ENSG00… 5631       -3.42  1.40e-2 Pentos…  0.595 3.03e-5
    ##  9    33 2.7.6… PRPS2  ENSG00… 5634       -3.42  1.40e-2 Pentos… -0.421 3.51e-4
    ## 10    46 1.2.4… PDHB   ENSG00… 5162       -2.57  8.57e-5 TCA cy… -0.238 3.21e-3
    ## # … with 66 more rows, and 1 more variable: significant <lgl>
